{
	"_metadata": {
		"page": "1 / 1885",
		"page_count": 20,
		"start_index": 1,
		"end_index": 20,
		"total_count": 37690,
		"current_page": "1",
		"next_page": "2"
	},
	"records": [
		{
			"vlr_latitude": "-10.9112370014188",
			"vlr_longitude": "-37.0620775222768",
			"cod_munic": "280030",
			"cod_cnes": "3492",
			"nom_estab": "US OSWALDO DE SOUZA",
			"dsc_endereco": "TV ADALTO BOTELHO",
			"dsc_bairro": "GETULIO VARGAS",
			"dsc_cidade": "Aracaju",
			"dsc_telefone": "7931791326",
			"dsc_estrut_fisic_ambiencia": "Desempenho acima da média",
			"dsc_adap_defic_fisic_idosos": "Desempenho muito acima da média",
			"dsc_equipamentos": "Desempenho mediano ou  um pouco abaixo da média",
			"dsc_medicamentos": "Desempenho acima da média",
			"co_cep": "49055020"
		},
		{
			"vlr_latitude": "-9.48594331741306",
			"vlr_longitude": "-35.8575725555409",
			"cod_munic": "270770",
			"cod_cnes": "6685315",
			"nom_estab": "USF ENFERMEIRO PEDRO JACINTO AREA 09",
			"dsc_endereco": "R 15 DE AGOSTO",
			"dsc_bairro": "CENTRO",
			"dsc_cidade": "Rio Largo",
			"dsc_telefone": "Não se aplica",
			"dsc_estrut_fisic_ambiencia": "Desempenho mediano ou  um pouco abaixo da média",
			"dsc_adap_defic_fisic_idosos": "Desempenho mediano ou  um pouco abaixo da média",
			"dsc_equipamentos": "Desempenho mediano ou  um pouco abaixo da média",
			"dsc_medicamentos": "Desempenho mediano ou  um pouco abaixo da média",
			"co_cep": "57100000"
		},
		{
			"vlr_latitude": "-23.896",
			"vlr_longitude": "-53.41",
			"cod_munic": "411885",
			"cod_cnes": "6811299",
			"nom_estab": "UNIDADE DE ATENCAO PRIMARIA SAUDE DA FAMILIA",
			"dsc_endereco": "RUA GUILHERME BRUXEL",
			"dsc_bairro": "CENTRO",
			"dsc_cidade": "Perobal",
			"dsc_telefone": "4436251462",
			"dsc_estrut_fisic_ambiencia": "Desempenho muito acima da média",
			"dsc_adap_defic_fisic_idosos": "Desempenho muito acima da média",
			"dsc_equipamentos": "Desempenho mediano ou  um pouco abaixo da média",
			"dsc_medicamentos": "Desempenho muito acima da média",
			"co_cep": "87538000"
		},
		{
			"vlr_latitude": "-16.447874307632",
			"vlr_longitude": "-41.0098600387561",
			"cod_munic": "313580",
			"cod_cnes": "6335616",
			"nom_estab": "POSTO DE SAUDE DE BOM JESUS DA ALDEIA",
			"dsc_endereco": "RUA TEOFILO OTONI",
			"dsc_bairro": "ALDEIA",
			"dsc_cidade": "Jequitinhonha",
			"dsc_telefone": "3337411423",
			"dsc_estrut_fisic_ambiencia": "Desempenho mediano ou  um pouco abaixo da média",
			"dsc_adap_defic_fisic_idosos": "Desempenho acima da média",
			"dsc_equipamentos": "Desempenho mediano ou  um pouco abaixo da média",
			"dsc_medicamentos": "Desempenho mediano ou  um pouco abaixo da média",
			"co_cep": "39960000"
		},
		{
			"vlr_latitude": "-6.57331109046917",
			"vlr_longitude": "-35.1076054573049",
			"cod_munic": "250930",
			"cod_cnes": "6662226",
			"nom_estab": "POSTO ANCORA URUBA",
			"dsc_endereco": "RODOVIA PB N 065",
			"dsc_bairro": "SITIO",
			"dsc_cidade": "Mataraca",
			"dsc_telefone": "Não se aplica",
			"dsc_estrut_fisic_ambiencia": "Desempenho acima da média",
			"dsc_adap_defic_fisic_idosos": "Desempenho acima da média",
			"dsc_equipamentos": "Desempenho mediano ou  um pouco abaixo da média",
			"dsc_medicamentos": "Desempenho mediano ou  um pouco abaixo da média",
			"co_cep": "58292000"
		},
		{
			"vlr_latitude": "-7.03715085983256",
			"vlr_longitude": "-37.2887992858876",
			"cod_munic": "251080",
			"cod_cnes": "6713971",
			"nom_estab": "UNIDADE DE SAUDE DA FAMILIA ANA RAQUEL",
			"dsc_endereco": "RUA SEVERINO SOARES",
			"dsc_bairro": "JD GUANABARA",
			"dsc_cidade": "Patos",
			"dsc_telefone": "Não se aplica",
			"dsc_estrut_fisic_ambiencia": "Desempenho mediano ou  um pouco abaixo da média",
			"dsc_adap_defic_fisic_idosos": "Desempenho mediano ou  um pouco abaixo da média",
			"dsc_equipamentos": "Desempenho mediano ou  um pouco abaixo da média",
			"dsc_medicamentos": "Desempenho mediano ou  um pouco abaixo da média",
			"co_cep": "58700970"
		},
		{
			"vlr_latitude": "-5.99885702133161",
			"vlr_longitude": "-40.2936887741077",
			"cod_munic": "231330",
			"cod_cnes": "3322076",
			"nom_estab": "PSF ODILON AGUIAR",
			"dsc_endereco": "RUA DOMINGAS GOMES",
			"dsc_bairro": "CENTRO",
			"dsc_cidade": "Tauá",
			"dsc_telefone": "(88)4373850",
			"dsc_estrut_fisic_ambiencia": "Desempenho mediano ou  um pouco abaixo da média",
			"dsc_adap_defic_fisic_idosos": "Desempenho mediano ou  um pouco abaixo da média",
			"dsc_equipamentos": "Desempenho mediano ou  um pouco abaixo da média",
			"dsc_medicamentos": "Desempenho acima da média",
			"co_cep": "63660000"
		},
		{
			"vlr_latitude": "-24.5821130275719",
			"vlr_longitude": "-49.435493946074",
			"cod_munic": "412863",
			"cod_cnes": "6749836",
			"nom_estab": "UAPSF PROF HETTY ROSA DE MOURA E COSTA",
			"dsc_endereco": "AVENIDA EZIDIO NEVES",
			"dsc_bairro": "CERRADO",
			"dsc_cidade": "Doutor Ulysses",
			"dsc_telefone": "4136641208",
			"dsc_estrut_fisic_ambiencia": "Desempenho muito acima da média",
			"dsc_adap_defic_fisic_idosos": "Desempenho muito acima da média",
			"dsc_equipamentos": "Desempenho acima da média",
			"dsc_medicamentos": "Desempenho acima da média",
			"co_cep": "83590000"
		},
		{
			"vlr_latitude": "-5.89795231819136",
			"vlr_longitude": "-44.8160004615771",
			"cod_munic": "211230",
			"cod_cnes": "2450801",
			"nom_estab": "UNIDADE BASICA DE SAUDE JOSE BIBI",
			"dsc_endereco": "POVOADO SAO JOAQUIM DOS MELOS",
			"dsc_bairro": "ZONA RURAL",
			"dsc_cidade": "Tuntum",
			"dsc_telefone": "9935225071",
			"dsc_estrut_fisic_ambiencia": "Desempenho mediano ou  um pouco abaixo da média",
			"dsc_adap_defic_fisic_idosos": "Desempenho mediano ou  um pouco abaixo da média",
			"dsc_equipamentos": "Desempenho mediano ou  um pouco abaixo da média",
			"dsc_medicamentos": "Desempenho mediano ou  um pouco abaixo da média",
			"co_cep": "65763000"
		},
		{
			"vlr_latitude": "-9.55789089202853",
			"vlr_longitude": "-37.3832130432118",
			"cod_munic": "270840",
			"cod_cnes": "6461689",
			"nom_estab": "USF NOSSA SENHORA DO BOM PARTO",
			"dsc_endereco": "RUA AFONSO SOARES VIEIRA",
			"dsc_bairro": "CENTRO",
			"dsc_cidade": "São José da Tapera",
			"dsc_telefone": "Não se aplica",
			"dsc_estrut_fisic_ambiencia": "Desempenho mediano ou  um pouco abaixo da média",
			"dsc_adap_defic_fisic_idosos": "Desempenho acima da média",
			"dsc_equipamentos": "Desempenho mediano ou  um pouco abaixo da média",
			"dsc_medicamentos": "Desempenho mediano ou  um pouco abaixo da média",
			"co_cep": "57445000"
		},
		{
			"vlr_latitude": "-3.09060215950003",
			"vlr_longitude": "-59.9864888191206",
			"cod_munic": "130260",
			"cod_cnes": "2014815",
			"nom_estab": "UBS L 29",
			"dsc_endereco": "RUA FLAVIO COSTA",
			"dsc_bairro": "COROADO I",
			"dsc_cidade": "Manaus",
			"dsc_telefone": "9232492767",
			"dsc_estrut_fisic_ambiencia": "Desempenho mediano ou  um pouco abaixo da média",
			"dsc_adap_defic_fisic_idosos": "Desempenho mediano ou  um pouco abaixo da média",
			"dsc_equipamentos": "Desempenho mediano ou  um pouco abaixo da média",
			"dsc_medicamentos": "Desempenho mediano ou  um pouco abaixo da média",
			"co_cep": "69080710"
		},
		{
			"vlr_latitude": "-15.6327939033504",
			"vlr_longitude": "-58.1737661361677",
			"cod_munic": "510710",
			"cod_cnes": "2394243",
			"nom_estab": "UNIDADE DE SAUDE DA FAMILIA ZEFERINO II",
			"dsc_endereco": "RUA RUI BARBOSA",
			"dsc_bairro": "JARDIM ZEFERINO II",
			"dsc_cidade": "São José dos Quatro Marcos",
			"dsc_telefone": "(65)3251-2978",
			"dsc_estrut_fisic_ambiencia": "Desempenho muito acima da média",
			"dsc_adap_defic_fisic_idosos": "Desempenho acima da média",
			"dsc_equipamentos": "Desempenho mediano ou  um pouco abaixo da média",
			"dsc_medicamentos": "Desempenho mediano ou  um pouco abaixo da média",
			"co_cep": "78285000"
		},
		{
			"vlr_latitude": "-14.5426476001735",
			"vlr_longitude": "-52.7972888946518",
			"cod_munic": "510260",
			"cod_cnes": "2395487",
			"nom_estab": "CENTRO DE SAUDE MUNICIPAL DE CAPINAPOLIS",
			"dsc_endereco": "AV XV DE NOVEMBRO",
			"dsc_bairro": "CENTRO",
			"dsc_cidade": "Campinápolis",
			"dsc_telefone": "(66) 4371631",
			"dsc_estrut_fisic_ambiencia": "Desempenho mediano ou  um pouco abaixo da média",
			"dsc_adap_defic_fisic_idosos": "Desempenho mediano ou  um pouco abaixo da média",
			"dsc_equipamentos": "Desempenho acima da média",
			"dsc_medicamentos": "Desempenho mediano ou  um pouco abaixo da média",
			"co_cep": "78630000"
		},
		{
			"vlr_latitude": "-16.0691678524013",
			"vlr_longitude": "-47.9820585250841",
			"cod_munic": "522185",
			"cod_cnes": "2383411",
			"nom_estab": "UNIDADE BASICA DE SAUDE VALPARAISO",
			"dsc_endereco": "CENTRO COMERCIAL QUADRA 07",
			"dsc_bairro": "VALPARAISO I",
			"dsc_cidade": "Valparaíso de Goiás",
			"dsc_telefone": "6136276636",
			"dsc_estrut_fisic_ambiencia": "Desempenho mediano ou  um pouco abaixo da média",
			"dsc_adap_defic_fisic_idosos": "Desempenho mediano ou  um pouco abaixo da média",
			"dsc_equipamentos": "Desempenho mediano ou  um pouco abaixo da média",
			"dsc_medicamentos": "Desempenho acima da média",
			"co_cep": "72870001"
		},
		{
			"vlr_latitude": "-27.029885",
			"vlr_longitude": "-48.668039",
			"cod_munic": "420320",
			"cod_cnes": "6816878",
			"nom_estab": "UNIDADE SAUDE DA FAMILIA SANTA REGINA",
			"dsc_endereco": "MANAGUA",
			"dsc_bairro": "SANTA REGINA",
			"dsc_cidade": "Camboriú",
			"dsc_telefone": "4733653239",
			"dsc_estrut_fisic_ambiencia": "Desempenho muito acima da média",
			"dsc_adap_defic_fisic_idosos": "Desempenho muito acima da média",
			"dsc_equipamentos": "Desempenho acima da média",
			"dsc_medicamentos": "Desempenho mediano ou  um pouco abaixo da média",
			"co_cep": "88345689"
		},
		{
			"vlr_latitude": "-29.6088624000541",
			"vlr_longitude": "-51.1745309829697",
			"cod_munic": "431080",
			"cod_cnes": "2230313",
			"nom_estab": "POSTO MORADA DO SOL IVOTI",
			"dsc_endereco": "RUA CAXIAS DO SUL",
			"dsc_bairro": "JARDIM BUHLER",
			"dsc_cidade": "Ivoti",
			"dsc_telefone": "35636067",
			"dsc_estrut_fisic_ambiencia": "Desempenho mediano ou  um pouco abaixo da média",
			"dsc_adap_defic_fisic_idosos": "Desempenho mediano ou  um pouco abaixo da média",
			"dsc_equipamentos": "Desempenho mediano ou  um pouco abaixo da média",
			"dsc_medicamentos": "Desempenho mediano ou  um pouco abaixo da média",
			"co_cep": "93900000"
		},
		{
			"vlr_latitude": "-15.453",
			"vlr_longitude": "-47.614",
			"cod_munic": "521760",
			"cod_cnes": "2438623",
			"nom_estab": "UNIDADE BASICA DE SAUDE 06 QA11 LESTE",
			"dsc_endereco": "QA11 MC",
			"dsc_bairro": "SETOR LESTE",
			"dsc_cidade": "Planaltina",
			"dsc_telefone": "(61)6371273",
			"dsc_estrut_fisic_ambiencia": "Desempenho mediano ou  um pouco abaixo da média",
			"dsc_adap_defic_fisic_idosos": "Desempenho mediano ou  um pouco abaixo da média",
			"dsc_equipamentos": "Desempenho mediano ou  um pouco abaixo da média",
			"dsc_medicamentos": "Desempenho mediano ou  um pouco abaixo da média",
			"co_cep": "73751030"
		},
		{
			"vlr_latitude": "-22.0929586887353",
			"vlr_longitude": "-43.9471149444567",
			"cod_munic": "315590",
			"cod_cnes": "2141728",
			"nom_estab": "POSTO DE SAUDE DE SAO CRISTOVAO",
			"dsc_endereco": "RUA PE ARLINDO VIEIRA",
			"dsc_bairro": "SAO CRISTOVAO",
			"dsc_cidade": "Rio Preto",
			"dsc_telefone": "3232831542",
			"dsc_estrut_fisic_ambiencia": "Desempenho mediano ou  um pouco abaixo da média",
			"dsc_adap_defic_fisic_idosos": "Desempenho mediano ou  um pouco abaixo da média",
			"dsc_equipamentos": "Desempenho mediano ou  um pouco abaixo da média",
			"dsc_medicamentos": "Desempenho mediano ou  um pouco abaixo da média",
			"co_cep": "36130000"
		},
		{
			"vlr_latitude": "-12.431",
			"vlr_longitude": "-38.328",
			"cod_munic": "292520",
			"cod_cnes": "2653486",
			"nom_estab": "UNIDADE BASICA DO PSF DA INOCOOP",
			"dsc_endereco": "RUA DALVA MONTE CRUZ",
			"dsc_bairro": "INOCOOP",
			"dsc_cidade": "Pojuca",
			"dsc_telefone": "(71)06452484",
			"dsc_estrut_fisic_ambiencia": "Desempenho acima da média",
			"dsc_adap_defic_fisic_idosos": "Desempenho mediano ou  um pouco abaixo da média",
			"dsc_equipamentos": "Desempenho mediano ou  um pouco abaixo da média",
			"dsc_medicamentos": "Desempenho muito acima da média",
			"co_cep": "48120000"
		},
		{
			"vlr_latitude": "-29.1107439994804",
			"vlr_longitude": "-49.6437835693345",
			"cod_munic": "421770",
			"cod_cnes": "2624591",
			"nom_estab": "PSF SAO JOSE",
			"dsc_endereco": "RUA ANICETO SILVEIRA",
			"dsc_bairro": "SAO JOSE",
			"dsc_cidade": "Sombrio",
			"dsc_telefone": "4835334525",
			"dsc_estrut_fisic_ambiencia": "Desempenho muito acima da média",
			"dsc_adap_defic_fisic_idosos": "Desempenho mediano ou  um pouco abaixo da média",
			"dsc_equipamentos": "Desempenho mediano ou  um pouco abaixo da média",
			"dsc_medicamentos": "Desempenho mediano ou  um pouco abaixo da média",
			"co_cep": "88960000"
		}
	]
}